…
4.3 The plane with tail number N223AG flew the most flights from the pnw.

``` r
flights %>% group_by(tailnum) %>% 
  summarise(total = n()) %>% 
  arrange(desc(total))
```

    ## # A tibble: 3,023 x 2
    ##    tailnum total
    ##    <chr>   <int>
    ##  1 N223AG    755
    ##  2 N218AG    749
    ##  3 N219AG    744
    ##  4 N614AS    738
    ##  5 N611AS    723
    ##  6 N224AG    713
    ##  7 N607AS    708
    ##  8 N619AS    696
    ##  9 N613AS    694
    ## 10 N644AS    691
    ## # ... with 3,013 more rows
…
4.4 The oldest plane has tailnum "N201AA". There is a total of 2628 planes listed in the planes table.

``` r
planes %>% filter(year > 0) %>% 
  full_join(flights, "tailnum")  %>%
  arrange(year.x)
```

    ## # A tibble: 162,049 x 24
    ##    tailnum year.x type      manufacturer model engines seats speed engine 
    ##    <chr>    <int> <chr>     <chr>        <chr>   <int> <int> <int> <chr>  
    ##  1 N201AA    1959 Fixed wi… CESSNA       150         1     2    90 Recipr…
    ##  2 N201AA    1959 Fixed wi… CESSNA       150         1     2    90 Recipr…
    ##  3 N201AA    1959 Fixed wi… CESSNA       150         1     2    90 Recipr…
    ##  4 N201AA    1959 Fixed wi… CESSNA       150         1     2    90 Recipr…
    ##  5 N201AA    1959 Fixed wi… CESSNA       150         1     2    90 Recipr…
    ##  6 N201AA    1959 Fixed wi… CESSNA       150         1     2    90 Recipr…
    ##  7 N201AA    1959 Fixed wi… CESSNA       150         1     2    90 Recipr…
    ##  8 N201AA    1959 Fixed wi… CESSNA       150         1     2    90 Recipr…
    ##  9 N201AA    1959 Fixed wi… CESSNA       150         1     2    90 Recipr…
    ## 10 N201AA    1959 Fixed wi… CESSNA       150         1     2    90 Recipr…
    ## # ... with 162,039 more rows, and 15 more variables: year.y <int>,
    ## #   month <int>, day <int>, dep_time <int>, dep_delay <dbl>,
    ## #   arr_time <int>, arr_delay <dbl>, carrier <chr>, flight <int>,
    ## #   origin <chr>, dest <chr>, air_time <dbl>, distance <dbl>, hour <dbl>,
    ## #   minute <dbl>

4.5 61 planes have missing years of manufacture. Boeing, Airbus Industrie, Airbus, Bombardier Inc, and McDonnel Douglas are the most popular manufacturers.

For all manufacturers, production was highest around the year 2000. Since then, Boeing has dominated the market, with AirBus a fairly distant second.

``` r
planes %>% filter(year == 0 | is.na(year))
```

    ## # A tibble: 61 x 9
    ##    tailnum  year type      manufacturer  model  engines seats speed engine
    ##    <chr>   <int> <chr>     <chr>         <chr>    <int> <int> <int> <chr> 
    ##  1 N174US     NA Fixed wi… AIRBUS INDUS… A321-…       2   199    NA Turbo…
    ##  2 N177US     NA Fixed wi… AIRBUS INDUS… A321-…       2   199    NA Turbo…
    ##  3 N181UW     NA Fixed wi… AIRBUS INDUS… A321-…       2   199    NA Turbo…
    ##  4 N194UW     NA Fixed wi… AIRBUS        A321-…       2   199    NA Turbo…
    ##  5 N235SW      0 Fixed wi… EMBRAER       EMB-1…       2    32    NA Turbo…
    ##  6 N271LV     NA Fixed wi… BOEING        737-7…       2   149    NA Turbo…
    ##  7 N298WN     NA Fixed wi… BOEING        737-7…       2   140    NA Turbo…
    ##  8 N299WN     NA Fixed wi… BOEING        737-7…       2   140    NA Turbo…
    ##  9 N331NB     NA Fixed wi… AIRBUS INDUS… A319-…       2   145    NA Turbo…
    ## 10 N33292     NA Fixed wi… BOEING        737-8…       2   149    NA Turbo…
    ## # ... with 51 more rows
…
