…
  babynames1 %>% 
    spread(key = "sex", value = "new_prop") %>% 
  filter(MALE > .0001 & FEMALE > .0001) %>%
# The filter here is to exclude names that are unisex only because they are very
# rare, I was more interested in popular unisex names.
  mutate(ratio = FEMALE/MALE, normed_ratio = if_else(ratio > 1, 1/ratio, ratio)) %>%
# Creating ratio, then creating new variable such that the ratio is always has the 
# larger proportion as the denominator, and therefore is always < 1
  group_by(name) %>%
  summarise(avg_gender_ratio = mean(normed_ratio)) %>%
  # taking average over all years present
  arrange(desc(avg_gender_ratio))
```

    ## # A tibble: 353 x 2
    ##    name     avg_gender_ratio
    ##    <chr>               <dbl>
    ##  1 Dell                0.989
    ##  2 Oakley              0.982
    ##  3 Kenyatta            0.958
    ##  4 Infant              0.954
    ##  5 Lonie               0.944
    ##  6 Dominque            0.932
    ##  7 Devyn               0.926
    ##  8 Baby                0.925
    ##  9 Azariah             0.921
    ## 10 Elisha              0.915
    ## # ... with 343 more rows
…
full_therm <- full_join(therm2, therm3)
```

    ## Joining, by = "date"

``` r
# joining the two
full_therm <- full_therm[,c(2,1,3)]
# rearrange columns 
full_therm
```

    ## # A tibble: 432 x 3
    ##    date       mean_bot_temp mean_surf_temp
    ##    <date>             <dbl>          <dbl>
    ##  1 1980-01-01          4.11           1.42
    ##  2 1980-02-01          4.11           1.03
    ##  3 1980-03-01          4.12           1.65
    ##  4 1980-04-01         10.5           10.5 
    ##  5 1980-05-01         17.1           18.3 
    ##  6 1980-06-01         23.8           24.5 
    ##  7 1980-07-01         24.5           27.9 
    ##  8 1980-08-01         24.2           24.5 
    ##  9 1980-09-01         18.9           19.0 
    ## 10 1980-10-01          9.48           9.49
    ## # ... with 422 more rows
…
