HW7Work
================
Canyon
4/9/2018

``` r
gutenberg_works(author == "Shakespeare, William")
```

    ## # A tibble: 79 x 8
    ##    gutenberg_id title    author gutenberg_autho… language gutenberg_books…
    ##           <int> <chr>    <chr>             <int> <chr>    <chr>           
    ##  1         1041 Shakesp… Shake…               65 en       <NA>            
    ##  2         1045 Venus a… Shake…               65 en       <NA>            
    ##  3         1500 King He… Shake…               65 en       <NA>            
    ##  4         1501 History… Shake…               65 en       <NA>            
    ##  5         1502 The His… Shake…               65 en       <NA>            
    ##  6         1503 The Tra… Shake…               65 en       <NA>            
    ##  7         1504 The Com… Shake…               65 en       <NA>            
    ##  8         1505 The Rap… Shake…               65 en       <NA>            
    ##  9         1507 The Tra… Shake…               65 en       <NA>            
    ## 10         1508 The Tam… Shake…               65 en       <NA>            
    ## # ... with 69 more rows, and 2 more variables: rights <chr>,
    ## #   has_text <lgl>
…
``` r
con_names <- data.frame(grep("[^AEIOUYaeiouy]{5}", babynames$name, value = T)) %>%
  distinct() %>%
  head()
```

Hamlet:

The play is 3966 lines long.

``` r
gutenberg_works(author == "Shakespeare, William")
```

    ## # A tibble: 79 x 8
    ##    gutenberg_id title    author gutenberg_autho… language gutenberg_books…
    ##           <int> <chr>    <chr>             <int> <chr>    <chr>           
    ##  1         1041 Shakesp… Shake…               65 en       <NA>            
    ##  2         1045 Venus a… Shake…               65 en       <NA>            
    ##  3         1500 King He… Shake…               65 en       <NA>            
    ##  4         1501 History… Shake…               65 en       <NA>            
    ##  5         1502 The His… Shake…               65 en       <NA>            
    ##  6         1503 The Tra… Shake…               65 en       <NA>            
    ##  7         1504 The Com… Shake…               65 en       <NA>            
    ##  8         1505 The Rap… Shake…               65 en       <NA>            
    ##  9         1507 The Tra… Shake…               65 en       <NA>            
    ## 10         1508 The Tam… Shake…               65 en       <NA>            
    ## # ... with 69 more rows, and 2 more variables: rights <chr>,
    ## #   has_text <lgl>
…
