Activity
…
3/6/2018

voters <- voters %>% 
  filter(!is.na(VOTER_ID)) %>% 
  gather(10:34, key = VOTE_DATE, value = VOTED) %>%
  filter(!is.na(VOTED)) %>%
  group_by(VOTER_ID) %>%
  mutate(VOTE_PROP = sum(VOTED =="YES")/(sum(VOTED == "NO")+ sum(VOTED == "YES") )) %>%
  select(-VOTED, -VOTE_DATE) %>%
  distinct()

voters %>%
  summarise(n_distinct(VOTER_ID))

## # A tibble: 97,164 x 2
##    VOTER_ID `n_distinct(VOTER_ID)`
##       <int>                  <int>
##  1   304193                      1
##  2   304313                      1
##  3   304322                      1
##  4   304329                      1
##  5   304337                      1
##  6   304344                      1
##  7   304381                      1
##  8   304439                      1
##  9   304450                      1
## 10   304553                      1
## # ... with 97,154 more rows
…
